Generalised Linear Models, 2: Transformed linear and multiple linear regression
…
exp(predict(linmod3,newdata=data.frame(logheight=log(80),logdiam=log(10))))

       1 
16.92628 

Section 4: Multiple regression with factors for the Gaussian family

So far we have only considered quantitative variables: height, diameter, volume. But in many datasets, some of the predictors of interest, or that may be confounders, are categorical: brand, country, species. When we use a categorical variable as a predictor, we call it a factor. To consider multiple regression when there are factors as well as continuous predictors (also sometimes called covariates), we will look at a dataset from the Ward’s Automotive Yearbook of 1985, available for download at Kaggle. We have already loaded this data in the preamble.

Let’s take a look at it

autot

# A tibble: 205 x 26
   symboling normalized_loss~ make  fuel_type aspiration num_of_doors body_style
       <dbl>            <dbl> <chr> <chr>     <chr>      <chr>        <chr>     
 1         3               NA alfa~ gas       std        two          convertib~
 2         3               NA alfa~ gas       std        two          convertib~
 3         1               NA alfa~ gas       std        two          hatchback 
 4         2              164 audi  gas       std        four         sedan     
 5         2              164 audi  gas       std        four         sedan     
 6         2               NA audi  gas       std        two          sedan     
 7         1              158 audi  gas       std        four         sedan     
 8         1               NA audi  gas       std        four         wagon     
 9         1              158 audi  gas       turbo      four         sedan     
10         0               NA audi  gas       turbo      two          hatchback 
# ... with 195 more rows, and 19 more variables: drive_wheels <chr>,
#   engine_location <chr>, wheel_base <dbl>, length <dbl>, width <dbl>,
#   height <dbl>, curb_weight <dbl>, engine_type <chr>, num_of_cylinders <chr>,
#   engine_size <dbl>, fuel_system <chr>, bore <dbl>, stroke <dbl>,
#   compression_ratio <dbl>, horsepower <dbl>, peak_rpm <dbl>, city_mpg <dbl>,
#   highway_mpg <dbl>, price <dbl>
…
