Generalised Linear Models 4: Poisson and other count models, and choosing variables
…
we can see that for heights of less than about 24 feet, the average predicted Diameter is negative, which of course doesn’t make sense. What this tells us is that our model certainly breaks down before we get that far below the 63 minimum height on which the model was based.

It shouldn’t surprise us that models are only useful for certain ranges of values–think of gravity. As long as we are talking about any relatively small object (a basketball, a teacup) being attracted to a fixed large object (Earth) we can think of this as gravity as giving a constant acceleration of -9.8 m/s^2. But this model wouldn’t work if we were on another planet–the constant would be different. And if we are talking about two very large objects, like the Sun and the various planets, rather than one large object and various small ones (a basketball) then the model isn’t constant at all, but instead also depends upon the distance between the two objects.

7.2: Some count data

The datasets we have used so far don’t have a good count variable, so we will look at a new dataset. This is a dataset from 2019-20 of player statistics from the Premier League. The dataset, called, england-premier-league-players-2018-to-2019-stats.csv, is available from the Learn page, or you can download it and similar datasets here.

We can have a look at it:

playerstats

## # A tibble: 572 x 46
##    full_name   age birthday league season position current_club minutes_played_~
##    <chr>     <dbl>    <dbl> <chr>  <chr>  <chr>    <chr>                   <dbl>
##  1 Aaron Cr~    30   6.30e8 Premi~ 2018/~ Defender West Ham Un~             1589
##  2 Aaron Le~    33   5.46e8 Premi~ 2018/~ Midfiel~ Burnley                  1217
##  3 Aaron Mo~    29   6.53e8 Premi~ 2018/~ Midfiel~ Huddersfiel~             2327
##  4 Aaron Ra~    29   6.62e8 Premi~ 2018/~ Midfiel~ Arsenal                  1327
##  5 Aaron Ro~    19   9.68e8 Premi~ 2018/~ Forward  Huddersfiel~               69
##  6 Aaron Wa~    22   8.81e8 Premi~ 2018/~ Midfiel~ Crystal Pal~             3135
##  7 Abdelham~    23   8.49e8 Premi~ 2018/~ Midfiel~ Huddersfiel~               49
##  8 Abdoulay~    27   7.26e8 Premi~ 2018/~ Midfiel~ Watford                  3062
##  9 Aboubaka~    25   7.95e8 Premi~ 2018/~ Forward  Fulham                    687
## 10 Adalbert~    23   8.65e8 Premi~ 2018/~ Forward  Watford                     0
## # ... with 562 more rows, and 38 more variables: minutes_played_home <dbl>,
## #   minutes_played_away <dbl>, nationality <chr>, appearances_overall <dbl>,
## #   appearances_home <dbl>, appearances_away <dbl>, goals_overall <dbl>,
## #   goals_home <dbl>, goals_away <dbl>, assists_overall <dbl>,
## #   assists_home <dbl>, assists_away <dbl>, penalty_goals <dbl>,
## #   penalty_misses <dbl>, clean_sheets_overall <dbl>, clean_sheets_home <dbl>,
## #   clean_sheets_away <dbl>, conceded_overall <dbl>, conceded_home <dbl>, ...
…
